dist/top_tb.vcd
$date
	Tue Jul 30 02:17:58 2024
$end
$version
	Icarus Verilog
$end
$timescale
	1s
$end
$scope module top_tb $end
$var parameter 32 ! MEM_SIZE $end
$var parameter 32 " PC_INIT $end
$var reg 1 # clk $end
$var reg 1 $ rst_n $end
$scope module top0 $end
$var wire 1 # clk $end
$var wire 1 $ rst_n $end
$var parameter 32 % MEM_SIZE $end
$var parameter 32 & PC_INIT $end
$scope module alu0 $end
$var wire 5 ' alu_op [4:0] $end
$var wire 32 ( signed_src_a [31:0] $end
$var wire 32 ) signed_src_b [31:0] $end
$var wire 32 * src_b [31:0] $end
$var wire 32 + src_a [31:0] $end
$var wire 5 , shamt [4:0] $end
$var reg 32 - result [31:0] $end
$upscope $end
$scope module controller0 $end
$var wire 32 . alu_out [31:0] $end
$var wire 32 / csr_imm [31:0] $end
$var wire 32 0 csr_rd [31:0] $end
$var wire 32 1 mem_out [31:0] $end
$var wire 5 2 rs1 [4:0] $end
$var wire 32 3 upimm [31:0] $end
$var wire 32 4 unsign_ext_half_mem_out [31:0] $end
$var wire 32 5 unsign_ext_byte_mem_out [31:0] $end
$var wire 32 6 sign_ext_imm_s [31:0] $end
$var wire 32 7 sign_ext_imm_j [31:0] $end
$var wire 32 8 sign_ext_imm_i [31:0] $end
$var wire 32 9 sign_ext_imm_b [31:0] $end
$var wire 32 : sign_ext_half_mem_out [31:0] $end
$var wire 32 ; sign_ext_byte_mem_out [31:0] $end
$var wire 32 < rs2_rd [31:0] $end
$var wire 32 = rs1_rd [31:0] $end
$var wire 32 > pc [31:0] $end
$var wire 7 ? opcode [6:0] $end
$var wire 32 @ jump_addr [31:0] $end
$var wire 20 A imm_u [19:0] $end
$var wire 12 B imm_s [11:0] $end
$var wire 20 C imm_j [19:0] $end
$var wire 12 D imm_i [11:0] $end
$var wire 12 E imm_b [11:0] $end
$var wire 32 F half_store_data [31:0] $end
$var wire 7 G funct7 [6:0] $end
$var wire 3 H funct3 [2:0] $end
$var wire 32 I byte_store_data [31:0] $end
$var wire 32 J branch_addr [31:0] $end
$var reg 5 K alu_op [4:0] $end
$var reg 32 L alu_src_a [31:0] $end
$var reg 32 M alu_src_b [31:0] $end
$var reg 12 N csr_addr [11:0] $end
$var reg 32 O csr_wd [31:0] $end
$var reg 1 P csr_we $end
$var reg 32 Q mem_addr [31:0] $end
$var reg 32 R mem_wd [31:0] $end
$var reg 1 S mem_we $end
$var reg 32 T pc_next [31:0] $end
$var reg 32 U rd_wd [31:0] $end
$var reg 1 V rd_we $end
$upscope $end
$scope module csr0 $end
$var wire 1 # clk $end
$var wire 12 W csr_addr [11:0] $end
$var wire 32 X csr_rd [31:0] $end
$var wire 32 Y csr_wd [31:0] $end
$var wire 1 Z csr_we $end
$upscope $end
$scope module dec0 $end
$var wire 5 [ rs2 [4:0] $end
$var wire 5 \ rs1 [4:0] $end
$var wire 5 ] rd [4:0] $end
$var wire 7 ^ opcode [6:0] $end
$var wire 32 _ instr [31:0] $end
$var wire 20 ` imm_u [19:0] $end
$var wire 12 a imm_s [11:0] $end
$var wire 20 b imm_j [19:0] $end
$var wire 12 c imm_i [11:0] $end
$var wire 12 d imm_b [11:0] $end
$var wire 7 e funct7 [6:0] $end
$var wire 3 f funct3 [2:0] $end
$upscope $end
$scope module pc0 $end
$var wire 1 # clk $end
$var wire 32 g pc_next [31:0] $end
$var wire 1 $ rst_n $end
$var parameter 32 h PC_INIT $end
$var reg 32 i pc [31:0] $end
$upscope $end
$scope module ram0 $end
$var wire 32 j addr1 [31:0] $end
$var wire 32 k addr2 [31:0] $end
$var wire 1 # clk $end
$var wire 32 l wd2 [31:0] $end
$var wire 1 m we2 $end
$var wire 32 n rd2 [31:0] $end
$var wire 32 o rd1 [31:0] $end
$var parameter 32 p MEM_SIZE $end
$var parameter 32 q START_ADDR $end
$upscope $end
$scope module regs0 $end
$var wire 5 r a1 [4:0] $end
$var wire 5 s a2 [4:0] $end
$var wire 5 t a3 [4:0] $end
$var wire 1 # clk $end
$var wire 1 $ rst_n $end
$var wire 32 u wd3 [31:0] $end
$var wire 1 v we3 $end
$var wire 32 w rd2 [31:0] $end
$var wire 32 x rd1 [31:0] $end
$scope begin $ivl_for_loop0 $end
$var integer 32 y i [31:0] $end
$upscope $end
$upscope $end
$upscope $end
$upscope $end
$enddefinitions $end
$comment Show the parameter values. $end
$dumpall
b10000000000000000000000000000000 q
b10000000100100 p
b10000000000000000000000000000000 h
b10000000000000000000000000000000 &
b10000000100100 %
b10000000000000000000000000000000 "
b10000000100100 !
$end
#0
$dumpvars
b0 y
bx x
bx w
xv
bx u
bx t
bx s
bx r
bx o
bx n
xm
bx l
bx k
bx j
bx i
bx g
bx f
bx e
bx d
bx c
bx b
bx a
bx `
bx _
bx ^
bx ]
bx \
bx [
xZ
bx Y
bx X
bx W
xV
bx U
bx T
xS
bx R
bx Q
xP
bx O
bx N
bx M
bx L
bx K
bx J
bx I
bx H
bx G
bx F
bx E
bx D
bx C
bx B
bx A
bx @
bx ?
bx >
bx =
bx <
bx ;
bx :
bx0 9
bx 8
bx0 7
bx 6
b0xxxxxxxx 5
b0xxxxxxxxxxxxxxxx 4
bx000000000000 3
bz 2
bx 1
bx 0
b0zzzzz /
b0 .
b0 -
bx ,
bx +
bx *
bx )
bx (
bx '
1$
0#
$end
#1
bx0000000000000000 F
bx00000000 I
b10000000000000000000000001010000 g
b10000000000000000000000001010000 T
b10000000000000000000000001010000 @
b10000000000000000000000001000000 J
b0 <
b0 w
b0 =
b0 x
0m
0S
b10000000000000000000000000000100 u
b10000000000000000000000000000100 U
1v
1V
b10 G
b10 e
b1010000 8
b1010000 D
b1010000 c
b10000 [
b10000 s
b1010000 7
b101000 C
b101000 b
b101000000000000000000000000 3
b101000000000000 A
b101000000000000 `
b0 \
b0 r
b0 H
b0 f
b1000000 9
b100000 E
b100000 d
b1000000 6
b1000000 B
b1000000 a
b0 ]
b0 t
b1101111 ?
b1101111 ^
b101000000000000000001101111 _
b101000000000000000001101111 o
b10000000000000000000000000000000 j
b10000000000000000000000000000000 >
b10000000000000000000000000000000 i
b100000 y
0$
#2
1$
#3
b0 ,
b0 '
b0 K
b0 )
b0 *
b0 M
b0 (
b0 +
b0 L
b0 7
b0 C
b0 b
b0 3
b0 A
b0 `
b0 8
b0 D
b0 c
b0 [
b0 s
b0 G
b0 e
b100000000000 9
b10000000000 E
b10000000000 d
b1 6
b1 B
b1 a
b1 ]
b1 t
b10011 ?
b10011 ^
b0 u
b0 U
b10000000000000000000000001010100 g
b10000000000000000000000001010100 T
b10000000000000000000000001010000 @
b10000000000000000000100001010000 J
b10010011 _
b10010011 o
b10000000000000000000000001010000 j
b10000000000000000000000001010000 >
b10000000000000000000000001010000 i
1#
#4
0#
#5
b10 9
b1 E
b1 d
b10 6
b10 B
b10 a
b10 ]
b10 t
b10000000000000000000000001011000 g
b10000000000000000000000001011000 T
b10000000000000000000000001010100 @
b10000000000000000000000001010110 J
b100010011 _
b100010011 o
b10000000000000000000000001010100 j
b10000000000000000000000001010100 >
b10000000000000000000000001010100 i
1#
#6
0#
#7
b100000000010 9
b10000000001 E
b10000000001 d
b11 6
b11 B
b11 a
b11 ]
b11 t
b10000000000000000000000001011100 g
b10000000000000000000000001011100 T
b10000000000000000000000001011000 @
b10000000000000000000100001011010 J
b110010011 _
b110010011 o
b10000000000000000000000001011000 j
b10000000000000000000000001011000 >
b10000000000000000000000001011000 i
1#
#8
0#
#9
b100 9
b10 E
b10 d
b100 6
b100 B
b100 a
b100 ]
b100 t
b10000000000000000000000001100000 g
b10000000000000000000000001100000 T
b10000000000000000000000001011100 @
b10000000000000000000000001100000 J
b1000010011 _
b1000010011 o
b10000000000000000000000001011100 j
b10000000000000000000000001011100 >
b10000000000000000000000001011100 i
1#
#10
0#
#11
b100000000100 9
b10000000010 E
b10000000010 d
b101 6
b101 B
b101 a
b101 ]
b101 t
b10000000000000000000000001100100 g
b10000000000000000000000001100100 T
b10000000000000000000000001100000 @
b10000000000000000000100001100100 J
b1010010011 _
b1010010011 o
b10000000000000000000000001100000 j
b10000000000000000000000001100000 >
b10000000000000000000000001100000 i
1#
#12
0#
#13
b110 9
b11 E
b11 d
b110 6
b110 B
b110 a
b110 ]
b110 t
b10000000000000000000000001101000 g
b10000000000000000000000001101000 T
b10000000000000000000000001100100 @
b10000000000000000000000001101010 J
b1100010011 _
b1100010011 o
b10000000000000000000000001100100 j
b10000000000000000000000001100100 >
b10000000000000000000000001100100 i
1#
#14
0#
#15
b100000000110 9
b10000000011 E
b10000000011 d
b111 6
b111 B
b111 a
b111 ]
b111 t
b10000000000000000000000001101100 g
b10000000000000000000000001101100 T
b10000000000000000000000001101000 @
b10000000000000000000100001101110 J
b1110010011 _
b1110010011 o
b10000000000000000000000001101000 j
b10000000000000000000000001101000 >
b10000000000000000000000001101000 i
1#
#16
0#
#17
b1000 9
b100 E
b100 d
b1000 6
b1000 B
b1000 a
b1000 ]
b1000 t
b10000000000000000000000001110000 g
b10000000000000000000000001110000 T
b10000000000000000000000001101100 @
b10000000000000000000000001110100 J
b10000010011 _
b10000010011 o
b10000000000000000000000001101100 j
b10000000000000000000000001101100 >
b10000000000000000000000001101100 i
1#
#18
0#
#19
b100000001000 9
b10000000100 E
b10000000100 d
b1001 6
b1001 B
b1001 a
b1001 ]
b1001 t
b10000000000000000000000001110100 g
b10000000000000000000000001110100 T
b10000000000000000000000001110000 @
b10000000000000000000100001111000 J
b10010010011 _
b10010010011 o
b10000000000000000000000001110000 j
b10000000000000000000000001110000 >
b10000000000000000000000001110000 i
1#
#20
0#
#21
b1010 9
b101 E
b101 d
b1010 6
b1010 B
b1010 a
b1010 ]
b1010 t
b10000000000000000000000001111000 g
b10000000000000000000000001111000 T
b10000000000000000000000001110100 @
b10000000000000000000000001111110 J
b10100010011 _
b10100010011 o
b10000000000000000000000001110100 j
b10000000000000000000000001110100 >
b10000000000000000000000001110100 i
1#
#22
0#
#23
b100000001010 9
b10000000101 E
b10000000101 d
b1011 6
b1011 B
b1011 a
b1011 ]
b1011 t
b10000000000000000000000001111100 g
b10000000000000000000000001111100 T
b10000000000000000000000001111000 @
b10000000000000000000100010000010 J
b10110010011 _
b10110010011 o
b10000000000000000000000001111000 j
b10000000000000000000000001111000 >
b10000000000000000000000001111000 i
1#
#24
0#
#25
b1100 9
b110 E
b110 d
b1100 6
b1100 B
b1100 a
b1100 ]
b1100 t
b10000000000000000000000010000000 g
b10000000000000000000000010000000 T
b10000000000000000000000001111100 @
b10000000000000000000000010001000 J
b11000010011 _
b11000010011 o
b10000000000000000000000001111100 j
b10000000000000000000000001111100 >
b10000000000000000000000001111100 i
1#
#26
0#
#27
b100000001100 9
b10000000110 E
b10000000110 d
b1101 6
b1101 B
b1101 a
b1101 ]
b1101 t
b10000000000000000000000010000100 g
b10000000000000000000000010000100 T
b10000000000000000000000010000000 @
b10000000000000000000100010001100 J
b11010010011 _
b11010010011 o
b10000000000000000000000010000000 j
b10000000000000000000000010000000 >
b10000000000000000000000010000000 i
1#
#28
0#
#29
b1110 9
b111 E
b111 d
b1110 6
b1110 B
b1110 a
b1110 ]
b1110 t
b10000000000000000000000010001000 g
b10000000000000000000000010001000 T
b10000000000000000000000010000100 @
b10000000000000000000000010010010 J
b11100010011 _
b11100010011 o
b10000000000000000000000010000100 j
b10000000000000000000000010000100 >
b10000000000000000000000010000100 i
1#
#30
0#
#31
b100000001110 9
b10000000111 E
b10000000111 d
b1111 6
b1111 B
b1111 a
b1111 ]
b1111 t
b10000000000000000000000010001100 g
b10000000000000000000000010001100 T
b10000000000000000000000010001000 @
b10000000000000000000100010010110 J
b11110010011 _
b11110010011 o
b10000000000000000000000010001000 j
b10000000000000000000000010001000 >
b10000000000000000000000010001000 i
1#
#32
0#
#33
b10000 9
b1000 E
b1000 d
b10000 6
b10000 B
b10000 a
b10000 ]
b10000 t
b10000000000000000000000010010000 g
b10000000000000000000000010010000 T
b10000000000000000000000010001100 @
b10000000000000000000000010011100 J
b100000010011 _
b100000010011 o
b10000000000000000000000010001100 j
b10000000000000000000000010001100 >
b10000000000000000000000010001100 i
1#
#34
0#
#35
b100000010000 9
b10000001000 E
b10000001000 d
b10001 6
b10001 B
b10001 a
b10001 ]
b10001 t
b10000000000000000000000010010100 g
b10000000000000000000000010010100 T
b10000000000000000000000010010000 @
b10000000000000000000100010100000 J
b100010010011 _
b100010010011 o
b10000000000000000000000010010000 j
b10000000000000000000000010010000 >
b10000000000000000000000010010000 i
1#
#36
0#
#37
b10010 9
b1001 E
b1001 d
b10010 6
b10010 B
b10010 a
b10010 ]
b10010 t
b10000000000000000000000010011000 g
b10000000000000000000000010011000 T
b10000000000000000000000010010100 @
b10000000000000000000000010100110 J
b100100010011 _
b100100010011 o
b10000000000000000000000010010100 j
b10000000000000000000000010010100 >
b10000000000000000000000010010100 i
1#
#38
0#
#39
b100000010010 9
b10000001001 E
b10000001001 d
b10011 6
b10011 B
b10011 a
b10011 ]
b10011 t
b10000000000000000000000010011100 g
b10000000000000000000000010011100 T
b10000000000000000000000010011000 @
b10000000000000000000100010101010 J
b100110010011 _
b100110010011 o
b10000000000000000000000010011000 j
b10000000000000000000000010011000 >
b10000000000000000000000010011000 i
1#
#40
0#
#41
b10100 9
b1010 E
b1010 d
b10100 6
b10100 B
b10100 a
b10100 ]
b10100 t
b10000000000000000000000010100000 g
b10000000000000000000000010100000 T
b10000000000000000000000010011100 @
b10000000000000000000000010110000 J
b101000010011 _
b101000010011 o
b10000000000000000000000010011100 j
b10000000000000000000000010011100 >
b10000000000000000000000010011100 i
1#
#42
0#
#43
b100000010100 9
b10000001010 E
b10000001010 d
b10101 6
b10101 B
b10101 a
b10101 ]
b10101 t
b10000000000000000000000010100100 g
b10000000000000000000000010100100 T
b10000000000000000000000010100000 @
b10000000000000000000100010110100 J
b101010010011 _
b101010010011 o
b10000000000000000000000010100000 j
b10000000000000000000000010100000 >
b10000000000000000000000010100000 i
1#
#44
0#
#45
b10110 9
b1011 E
b1011 d
b10110 6
b10110 B
b10110 a
b10110 ]
b10110 t
b10000000000000000000000010101000 g
b10000000000000000000000010101000 T
b10000000000000000000000010100100 @
b10000000000000000000000010111010 J
b101100010011 _
b101100010011 o
b10000000000000000000000010100100 j
b10000000000000000000000010100100 >
b10000000000000000000000010100100 i
1#
#46
0#
#47
b100000010110 9
b10000001011 E
b10000001011 d
b10111 6
b10111 B
b10111 a
b10111 ]
b10111 t
b10000000000000000000000010101100 g
b10000000000000000000000010101100 T
b10000000000000000000000010101000 @
b10000000000000000000100010111110 J
b101110010011 _
b101110010011 o
b10000000000000000000000010101000 j
b10000000000000000000000010101000 >
b10000000000000000000000010101000 i
1#
#48
0#
#49
b11000 9
b1100 E
b1100 d
b11000 6
b11000 B
b11000 a
b11000 ]
b11000 t
b10000000000000000000000010110000 g
b10000000000000000000000010110000 T
b10000000000000000000000010101100 @
b10000000000000000000000011000100 J
b110000010011 _
b110000010011 o
b10000000000000000000000010101100 j
b10000000000000000000000010101100 >
b10000000000000000000000010101100 i
1#
#50
0#
#51
b100000011000 9
b10000001100 E
b10000001100 d
b11001 6
b11001 B
b11001 a
b11001 ]
b11001 t
b10000000000000000000000010110100 g
b10000000000000000000000010110100 T
b10000000000000000000000010110000 @
b10000000000000000000100011001000 J
b110010010011 _
b110010010011 o
b10000000000000000000000010110000 j
b10000000000000000000000010110000 >
b10000000000000000000000010110000 i
1#
#52
0#
#53
b11010 9
b1101 E
b1101 d
b11010 6
b11010 B
b11010 a
b11010 ]
b11010 t
b10000000000000000000000010111000 g
b10000000000000000000000010111000 T
b10000000000000000000000010110100 @
b10000000000000000000000011001110 J
b110100010011 _
b110100010011 o
b10000000000000000000000010110100 j
b10000000000000000000000010110100 >
b10000000000000000000000010110100 i
1#
#54
0#
#55
b100000011010 9
b10000001101 E
b10000001101 d
b11011 6
b11011 B
b11011 a
b11011 ]
b11011 t
b10000000000000000000000010111100 g
b10000000000000000000000010111100 T
b10000000000000000000000010111000 @
b10000000000000000000100011010010 J
b110110010011 _
b110110010011 o
b10000000000000000000000010111000 j
b10000000000000000000000010111000 >
b10000000000000000000000010111000 i
1#
#56
0#
#57
b11100 9
b1110 E
b1110 d
b11100 6
b11100 B
b11100 a
b11100 ]
b11100 t
b10000000000000000000000011000000 g
b10000000000000000000000011000000 T
b10000000000000000000000010111100 @
b10000000000000000000000011011000 J
b111000010011 _
b111000010011 o
b10000000000000000000000010111100 j
b10000000000000000000000010111100 >
b10000000000000000000000010111100 i
1#
#58
0#
#59
b100000011100 9
b10000001110 E
b10000001110 d
b11101 6
b11101 B
b11101 a
b11101 ]
b11101 t
b10000000000000000000000011000100 g
b10000000000000000000000011000100 T
b10000000000000000000000011000000 @
b10000000000000000000100011011100 J
b111010010011 _
b111010010011 o
b10000000000000000000000011000000 j
b10000000000000000000000011000000 >
b10000000000000000000000011000000 i
1#
#60
0#
#61
b11110 9
b1111 E
b1111 d
b11110 6
b11110 B
b11110 a
b11110 ]
b11110 t
b10000000000000000000000011001000 g
b10000000000000000000000011001000 T
b10000000000000000000000011000100 @
b10000000000000000000000011100010 J
b111100010011 _
b111100010011 o
b10000000000000000000000011000100 j
b10000000000000000000000011000100 >
b10000000000000000000000011000100 i
1#
#62
0#
#63
b100000011110 9
b10000001111 E
b10000001111 d
b11111 6
b11111 B
b11111 a
b11111 ]
b11111 t
b10000000000000000000000011001100 g
b10000000000000000000000011001100 T
b10000000000000000000000011001000 @
b10000000000000000000100011100110 J
b111110010011 _
b111110010011 o
b10000000000000000000000011001000 j
b10000000000000000000000011001000 >
b10000000000000000000000011001000 i
1#
#64
0#
#65
1Z
1P
b111100010100 N
b111100010100 W
bx u
bx U
b1111000 G
b1111000 e
b11111111111111111111111100010100 8
b111100010100 D
b111100010100 c
b10100 [
b10100 s
b11111111111100000010011100010100 7
b10000001001110001010 C
b10000001001110001010 b
b11110001010000000010000000000000 3
b11110001010000000010 A
b11110001010000000010 `
b10 H
b10 f
b11111111111111111111011100001010 9
b101110000101 E
b101110000101 d
b11111111111111111111111100001010 6
b111100001010 B
b111100001010 a
b1010 ]
b1010 t
b1110011 ?
b1110011 ^
b10000000000000000000000011010000 g
b10000000000000000000000011010000 T
b1111111111100000010011111100000 @
b1111111111111111111011111010110 J
b11110001010000000010010101110011 _
b11110001010000000010010101110011 o
b10000000000000000000000011001100 j
b10000000000000000000000011001100 >
b10000000000000000000000011001100 i
1#
#66
0#
#67
bx .
bx -
bx (
bx +
bx L
bx =
bx x
b1 '
b1 K
0v
0V
b0 G
b0 e
b0 8
b0 D
b0 c
b0 [
b0 s
b1010 \
b1010 r
b1010001000000000000 7
b101000100000000000 C
b101000100000000000 b
b1010001000000000000 3
b1010001 A
b1010001 `
b0 9
b0 E
b0 d
b0 6
b0 B
b0 a
b0 ]
b0 t
b1 H
b1 f
b1100011 ?
b1100011 ^
b10000000000000000000000011010100 g
b10000000000000000000000011010100 T
b10000000000001010001000011010000 @
b10000000000000000000000011010000 J
b1010001000001100011 _
b1010001000001100011 o
b10000000000000000000000011010000 j
b10000000000000000000000011010000 >
b10000000000000000000000011010000 i
1#
#68
0#
#69
b10000000000000000000000011010100 u
b10000000000000000000000011010100 U
b10000000000000000000000011010100 .
b10000000000000000000000011010100 -
b0 =
b0 x
1v
1V
b10000000000000000000000011010100 (
b10000000000000000000000011010100 +
b10000000000000000000000011010100 L
b0 '
b0 K
b0 \
b0 r
b0 7
b0 C
b0 b
b0 3
b0 A
b0 `
b0 H
b0 f
b100000000100 9
b10000000010 E
b10000000010 d
b101 6
b101 B
b101 a
b101 ]
b101 t
b10111 ?
b10111 ^
b10000000000000000000000011011000 g
b10000000000000000000000011011000 T
b10000000000000000000000011010100 @
b10000000000000000000100011011000 J
b1010010111 _
b1010010111 o
b10000000000000000000000011010100 j
b10000000000000000000000011010100 >
b10000000000000000000000011010100 i
1#
#70
0#
#71
b10000 ,
b10000000000000000000000011010100 =
b10000000000000000000000011010100 x
b10000000000000000000000011100100 u
b10000000000000000000000011100100 U
b10000 )
b10000 *
b10000 M
b10000000000000000000000011100100 .
b10000000000000000000000011100100 -
b10000 8
b10000 D
b10000 c
b10000 [
b10000 s
b101000000000010000 7
b10100000000001000 C
b10100000000001000 b
b1000000101000000000000000 3
b1000000101000 A
b1000000101000 `
b101 \
b101 r
b10011 ?
b10011 ^
b10000000000000000000000011011100 g
b10000000000000000000000011011100 T
b10000000000000000000000011010100 (
b10000000000000000000000011010100 +
b10000000000000000000000011010100 L
b10000000000000101000000011101000 @
b10000000000000000000100011011100 J
b1000000101000001010010011 _
b1000000101000001010010011 o
b10000000000000000000000011011000 j
b10000000000000000000000011011000 >
b10000000000000000000000011011000 i
1#
#72
0#
#73
bx0000000011100100 F
bx11100100 I
b10000000000000000000000011100100 <
b10000000000000000000000011100100 w
b10000000000000000000000011100100 Y
b10000000000000000000000011100100 O
b1100000101 N
b1100000101 W
bx u
bx U
b10000000000000000000000011100100 =
b10000000000000000000000011100100 x
b11000 G
b11000 e
b1100000101 8
b1100000101 D
b1100000101 c
b101 [
b101 s
b101001101100000100 7
b10100110110000010 C
b10100110110000010 b
b110000010100101001000000000000 3
b110000010100101001 A
b110000010100101001 `
b1 H
b1 f
b1100000000 9
b110000000 E
b110000000 d
b1100000000 6
b1100000000 B
b1100000000 a
b0 ]
b0 t
b1110011 ?
b1110011 ^
b10000000000000000000000011100000 g
b10000000000000000000000011100000 T
b10000000000000101001101111100000 @
b10000000000000000000001111011100 J
b110000010100101001000001110011 _
b110000010100101001000001110011 o
b10000000000000000000000011011100 j
b10000000000000000000000011011100 >
b10000000000000000000000011011100 i
1#
#74
0#
#75
bx0000000000000000 F
bx00000000 I
b0 <
b0 w
b0 =
b0 x
b0zzzzz Y
b0zzzzz O
b11101000100 N
b11101000100 W
b11101000000 9
b1110100000 E
b1110100000 d
b11101000000 6
b11101000000 B
b11101000000 a
b111010 G
b111010 e
b11101000100 8
b11101000100 D
b11101000100 c
b100 [
b100 s
b1000101011101000100 7
b100010101110100010 C
b100010101110100010 b
b1110100010001000101000000000000 3
b1110100010001000101 A
b1110100010001000101 `
b1000 \
b1000 r
b101 H
b101 f
bx u
bx U
b10000000000000000000000011100100 g
b10000000000000000000000011100100 T
bx 0
bx X
b10000000000001000101100000100100 @
b10000000000000000000100000100000 J
b1110100010001000101000001110011 _
b1110100010001000101000001110011 o
b10000000000000000000000011100000 j
b10000000000000000000000011100000 >
b10000000000000000000000011100000 i
1#
#76
0#
#77
b0 ,
b0 )
b0 *
b0 M
b10000000000000000000000011100100 (
b10000000000000000000000011100100 +
b10000000000000000000000011100100 L
b0 G
b0 e
b0 8
b0 D
b0 c
b0 [
b0 s
b0 \
b0 r
b0 7
b0 C
b0 b
b0 3
b0 A
b0 `
b0 H
b0 f
b100000000100 9
b10000000010 E
b10000000010 d
b101 6
b101 B
b101 a
b101 ]
b101 t
b10111 ?
b10111 ^
b10000000000000000000000011100100 u
b10000000000000000000000011100100 U
b10000000000000000000000011101000 g
b10000000000000000000000011101000 T
b0zzzzz 0
b0zzzzz X
b10000000000000000000000011100100 @
b10000000000000000000100011101000 J
b1010010111 _
b1010010111 o
b10000000000000000000000011100100 j
b10000000000000000000000011100100 >
b10000000000000000000000011100100 i
1#
#78
0#
#79
b10000 ,
b10000000000000000000000011100100 =
b10000000000000000000000011100100 x
b10000000000000000000000011110100 u
b10000000000000000000000011110100 U
b10000 )
b10000 *
b10000 M
b10000000000000000000000011110100 .
b10000000000000000000000011110100 -
b10000 8
b10000 D
b10000 c
b10000 [
b10000 s
b101000000000010000 7
b10100000000001000 C
b10100000000001000 b
b1000000101000000000000000 3
b1000000101000 A
b1000000101000 `
b101 \
b101 r
b10011 ?
b10011 ^
b10000000000000000000000011101100 g
b10000000000000000000000011101100 T
b10000000000000000000000011100100 (
b10000000000000000000000011100100 +
b10000000000000000000000011100100 L
b10000000000000101000000011111000 @
b10000000000000000000100011101100 J
b1000000101000001010010011 _
b1000000101000001010010011 o
b10000000000000000000000011101000 j
b10000000000000000000000011101000 >
b10000000000000000000000011101000 i
1#
#80
0#
#81
bx0000000011110100 F
bx11110100 I
b10000000000000000000000011110100 <
b10000000000000000000000011110100 w
b10000000000000000000000011110100 Y
b10000000000000000000000011110100 O
b10000000000000000000000011100100 0
b10000000000000000000000011100100 X
b1100000101 N
b1100000101 W
b10000000000000000000000011100100 u
b10000000000000000000000011100100 U
b10000000000000000000000011110100 =
b10000000000000000000000011110100 x
b11000 G
b11000 e
b1100000101 8
b1100000101 D
b1100000101 c
b101 [
b101 s
b101001101100000100 7
b10100110110000010 C
b10100110110000010 b
b110000010100101001000000000000 3
b110000010100101001 A
b110000010100101001 `
b1 H
b1 f
b1100000000 9
b110000000 E
b110000000 d
b1100000000 6
b1100000000 B
b1100000000 a
b0 ]
b0 t
b1110011 ?
b1110011 ^
b10000000000000000000000011110000 g
b10000000000000000000000011110000 T
b10000000000000101001101111110000 @
b10000000000000000000001111101100 J
b110000010100101001000001110011 _
b110000010100101001000001110011 o
b10000000000000000000000011101100 j
b10000000000000000000000011101100 >
b10000000000000000000000011101100 i
1#
#82
0#
#83
bx0000000000000000 F
bx00000000 I
b0 <
b0 w
b0 =
b0 x
b0zzzzz Y
b0zzzzz O
b110000000 N
b110000000 W
b110000000 9
b11000000 E
b11000000 d
b110000000 6
b110000000 B
b110000000 a
b1100 G
b1100 e
b110000000 8
b110000000 D
b110000000 c
b0 [
b0 s
b101000110000000 7
b10100011000000 C
b10100011000000 b
b11000000000000101000000000000 3
b11000000000000101 A
b11000000000000101 `
b0 \
b0 r
b101 H
b101 f
bx u
bx U
b10000000000000000000000011110100 g
b10000000000000000000000011110100 T
bx 0
bx X
b10000000000000000101001001110000 @
b10000000000000000000001001110000 J
b11000000000000101000001110011 _
b11000000000000101000001110011 o
b10000000000000000000000011110000 j
b10000000000000000000000011110000 >
b10000000000000000000000011110000 i
1#
#84
0#
#85
b0 ,
b0 )
b0 *
b0 M
b10000000000000000000000011110100 (
b10000000000000000000000011110100 +
b10000000000000000000000011110100 L
b0 8
b0 D
b0 c
b0 G
b0 e
b0 7
b0 C
b0 b
b0 3
b0 A
b0 `
b0 H
b0 f
b100000000100 9
b10000000010 E
b10000000010 d
b101 6
b101 B
b101 a
b101 ]
b101 t
b10111 ?
b10111 ^
b10000000000000000000000011110100 u
b10000000000000000000000011110100 U
b10000000000000000000000011111000 g
b10000000000000000000000011111000 T
b0zzzzz 0
b0zzzzz X
b10000000000000000000000011110100 @
b10000000000000000000100011111000 J
b1010010111 _
b1010010111 o
b10000000000000000000000011110100 j
b10000000000000000000000011110100 >
b10000000000000000000000011110100 i
1#
#86
0#
#87
b10000000000000000000000011110100 =
b10000000000000000000000011110100 x
b10000000000000000000000100010100 u
b10000000000000000000000100010100 U
b100000 )
b100000 *
b100000 M
b10000000000000000000000100010100 .
b10000000000000000000000100010100 -
b100000100100 9
b10000010010 E
b10000010010 d
b100101 6
b100101 B
b100101 a
b100000 8
b100000 D
b100000 c
b1 G
b1 e
b101000000000100000 7
b10100000000010000 C
b10100000000010000 b
b10000000101000000000000000 3
b10000000101000 A
b10000000101000 `
b101 \
b101 r
b10011 ?
b10011 ^
b10000000000000000000000011111100 g
b10000000000000000000000011111100 T
b10000000000000000000000011110100 (
b10000000000000000000000011110100 +
b10000000000000000000000011110100 L
b10000000000000101000000100011000 @
b10000000000000000000100100011100 J
b10000000101000001010010011 _
b10000000101000001010010011 o
b10000000000000000000000011111000 j
b10000000000000000000000011111000 >
b10000000000000000000000011111000 i
1#
#88
0#
#89
bx0000000100010100 F
bx00010100 I
b10000000000000000000000100010100 <
b10000000000000000000000100010100 w
b10000000000000000000000100010100 Y
b10000000000000000000000100010100 O
b10000000000000000000000011110100 0
b10000000000000000000000011110100 X
b1100000101 N
b1100000101 W
b10000000000000000000000011110100 u
b10000000000000000000000011110100 U
b10000000000000000000000100010100 =
b10000000000000000000000100010100 x
b11000 G
b11000 e
b1100000101 8
b1100000101 D
b1100000101 c
b101 [
b101 s
b101001101100000100 7
b10100110110000010 C
b10100110110000010 b
b110000010100101001000000000000 3
b110000010100101001 A
b110000010100101001 `
b1 H
b1 f
b1100000000 9
b110000000 E
b110000000 d
b1100000000 6
b1100000000 B
b1100000000 a
b0 ]
b0 t
b1110011 ?
b1110011 ^
b10000000000000000000000100000000 g
b10000000000000000000000100000000 T
b10000000000000101001110000000000 @
b10000000000000000000001111111100 J
b110000010100101001000001110011 _
b110000010100101001000001110011 o
b10000000000000000000000011111100 j
b10000000000000000000000011111100 >
b10000000000000000000000011111100 i
1#
#90
0#
#91
bx0000000000000000 F
bx00000000 I
b0 <
b0 w
b0 =
b0 x
b1000000 G
b1000000 e
b11111111111111111111100000000000 8
b100000000000 D
b100000000000 c
b0 [
b0 s
b11111111111100000000000000000000 7
b10000000000000000000 C
b10000000000000000000 b
b10000000000000000000000000000000 3
b10000000000000000000 A
b10000000000000000000 `
b0 \
b0 r
b0 H
b0 f
b11111111111111111111100000000100 9
b110000000010 E
b110000000010 d
b11111111111111111111100000000101 6
b100000000101 B
b100000000101 a
b101 ]
b101 t
b110111 ?
b110111 ^
b10000000000000000000000000000000 u
b10000000000000000000000000000000 U
b10000000000000000000000100000100 g
b10000000000000000000000100000100 T
b10000000000000000000000100010100 0
b10000000000000000000000100010100 X
b1111111111100000000000100000000 @
b1111111111111111111100100000100 J
b10000000000000000000001010110111 _
b10000000000000000000001010110111 o
b10000000000000000000000100000000 j
b10000000000000000000000100000000 >
b10000000000000000000000100000000 i
1#
#92
0#
